{
	"commentStamp" : "kilon 10/18/2018 08:46",
	"super" : "MGNType",
	"category" : "Magnetar",
	"classinstvars" : [ ],
	"pools" : [ ],
	"classvars" : [ ],
	"instvars" : [ ],
	"name" : "MGNInt",
	"type" : "normal"
}